<?xml version="1.0" encoding="UTF-8" standalone="no"?>
<!-- Created with Inkscape (http://www.inkscape.org/) -->

<svg
   xmlns:dc="http://purl.org/dc/elements/1.1/"
   xmlns:cc="http://creativecommons.org/ns#"
   xmlns:rdf="http://www.w3.org/1999/02/22-rdf-syntax-ns#"
   xmlns:svg="http://www.w3.org/2000/svg"
   xmlns="http://www.w3.org/2000/svg"
   xmlns:xlink="http://www.w3.org/1999/xlink"
   xmlns:sodipodi="http://sodipodi.sourceforge.net/DTD/sodipodi-0.dtd"
   xmlns:inkscape="http://www.inkscape.org/namespaces/inkscape"
   width="48px"
   height="48px"
   id="svg5065"
   version="1.1"
   inkscape:version="0.48.1 "
   sodipodi:docname="minus.svg"
   inkscape:export-filename="../src/ragdoll/tools/doclets/internal/toolkit/resources/minus.png"
   inkscape:export-xdpi="37.5"
   inkscape:export-ydpi="37.5">
  <defs
     id="defs5067">
    <linearGradient
       id="linearGradient3760">
      <stop
         style="stop-color:#f6b55d;stop-opacity:1;"
         offset="0"
         id="stop3762" />
      <stop
         style="stop-color:#eecea4;stop-opacity:1;"
         offset="1"
         id="stop3764" />
    </linearGradient>
    <inkscape:perspective
       sodipodi:type="inkscape:persp3d"
       inkscape:vp_x="0 : 24 : 1"
       inkscape:vp_y="0 : 1000 : 0"
       inkscape:vp_z="48 : 24 : 1"
       inkscape:persp3d-origin="24 : 16 : 1"
       id="perspective5073" />
    <linearGradient
       inkscape:collect="always"
       xlink:href="#linearGradient3760"
       id="linearGradient3766"
       x1="1.0872933"
       y1="29.669851"
       x2="1.0947368"
       y2="18.327423"
       gradientUnits="userSpaceOnUse"
       gradientTransform="matrix(0.97744324,0,0,0.97744324,0.29340545,0.14322892)" />
    <filter
       inkscape:collect="always"
       id="filter3802">
      <feGaussianBlur
         inkscape:collect="always"
         stdDeviation="0.27996767"
         id="feGaussianBlur3804" />
    </filter>
  </defs>
  <sodipodi:namedview
     id="base"
     pagecolor="#ffffff"
     bordercolor="#666666"
     borderopacity="1.0"
     inkscape:pageopacity="0.0"
     inkscape:pageshadow="2"
     inkscape:zoom="11.142578"
     inkscape:cx="21.838533"
     inkscape:cy="23.438071"
     inkscape:current-layer="layer1"
     showgrid="true"
     inkscape:grid-bbox="true"
     inkscape:document-units="px"
     inkscape:window-width="1618"
     inkscape:window-height="1028"
     inkscape:window-x="-8"
     inkscape:window-y="-8"
     inkscape:window-maximized="1" />
  <metadata
     id="metadata5070">
    <rdf:RDF>
      <cc:Work
         rdf:about="">
        <dc:format>image/svg+xml</dc:format>
        <dc:type
           rdf:resource="http://purl.org/dc/dcmitype/StillImage" />
        <dc:title></dc:title>
      </cc:Work>
    </rdf:RDF>
  </metadata>
  <g
     id="layer1"
     inkscape:label="Layer 1"
     inkscape:groupmode="layer">
    <rect
       y="18.943624"
       x="2.1240859"
       height="11.17078"
       width="44.822754"
       id="rect3768"
       style="color:#000000;fill:#999999;fill-opacity:1;fill-rule:nonzero;stroke:none;stroke-width:0.50900000000000001;marker:none;visibility:visible;display:inline;overflow:visible;enable-background:accumulate;filter:url(#filter3802)" />
    <rect
       style="color:#000000;fill:url(#linearGradient3766);fill-opacity:1;fill-rule:nonzero;stroke:none;stroke-width:0.509;marker:none;visibility:visible;display:inline;overflow:visible;enable-background:accumulate"
       id="rect5075"
       width="44.822754"
       height="11.17078"
       x="1.3406658"
       y="18.016476" />
  </g>
</svg>
