<?xml version="1.0" encoding="UTF-8" standalone="no"?>
<!-- Created with Inkscape (http://www.inkscape.org/) -->

<svg
   xmlns:dc="http://purl.org/dc/elements/1.1/"
   xmlns:cc="http://creativecommons.org/ns#"
   xmlns:rdf="http://www.w3.org/1999/02/22-rdf-syntax-ns#"
   xmlns:svg="http://www.w3.org/2000/svg"
   xmlns="http://www.w3.org/2000/svg"
   xmlns:xlink="http://www.w3.org/1999/xlink"
   xmlns:sodipodi="http://sodipodi.sourceforge.net/DTD/sodipodi-0.dtd"
   xmlns:inkscape="http://www.inkscape.org/namespaces/inkscape"
   width="32px"
   height="32px"
   id="svg3008"
   version="1.1"
   inkscape:version="0.48.1 "
   sodipodi:docname="node.svg"
   inkscape:export-filename="../src/ragdoll/tools/doclets/internal/toolkit/resources/node.png"
   inkscape:export-xdpi="90"
   inkscape:export-ydpi="90">
  <defs
     id="defs3010">
    <linearGradient
       id="linearGradient4651">
      <stop
         style="stop-color:#a9bdb6;stop-opacity:1;"
         offset="0"
         id="stop4653" />
      <stop
         style="stop-color:#31363f;stop-opacity:1;"
         offset="1"
         id="stop4655" />
    </linearGradient>
    <inkscape:perspective
       sodipodi:type="inkscape:persp3d"
       inkscape:vp_x="-0.056102158 : 25.817878 : 1"
       inkscape:vp_y="0 : 1000 : 0"
       inkscape:vp_z="31.943898 : 25.817878 : 1"
       inkscape:persp3d-origin="15.943898 : 20.484545 : 1"
       id="perspective3060" />
    <inkscape:perspective
       sodipodi:type="inkscape:persp3d"
       inkscape:vp_x="-9.0885496 : 26.491104 : 1"
       inkscape:vp_y="0 : 1000 : 0"
       inkscape:vp_z="38.563952 : 27.781453 : 1"
       inkscape:persp3d-origin="16 : 10.666667 : 1"
       id="perspective3016" />
    <radialGradient
       inkscape:collect="always"
       xlink:href="#linearGradient4651"
       id="radialGradient4657"
       cx="11.49249"
       cy="16.489283"
       fx="11.49249"
       fy="16.489283"
       r="11.816282"
       gradientUnits="userSpaceOnUse"
       gradientTransform="matrix(1.4379159,-8.5732756e-8,8.9220858e-8,1.4964186,-2.4036136,-13.734293)" />
  </defs>
  <sodipodi:namedview
     id="base"
     pagecolor="#ffffff"
     bordercolor="#666666"
     borderopacity="1.0"
     inkscape:pageopacity="0.0"
     inkscape:pageshadow="2"
     inkscape:zoom="18.009126"
     inkscape:cx="13.03732"
     inkscape:cy="14.39093"
     inkscape:current-layer="layer1"
     showgrid="false"
     inkscape:grid-bbox="true"
     inkscape:document-units="px"
     inkscape:window-width="1618"
     inkscape:window-height="1028"
     inkscape:window-x="-8"
     inkscape:window-y="-8"
     inkscape:window-maximized="1">
    <inkscape:grid
       type="xygrid"
       id="grid3281"
       empspacing="5"
       visible="true"
       enabled="true"
       snapvisiblegridlinesonly="true"
       spacingx="0.5px"
       spacingy="0.5px" />
  </sodipodi:namedview>
  <metadata
     id="metadata3013">
    <rdf:RDF>
      <cc:Work
         rdf:about="">
        <dc:format>image/svg+xml</dc:format>
        <dc:type
           rdf:resource="http://purl.org/dc/dcmitype/StillImage" />
        <dc:title />
      </cc:Work>
    </rdf:RDF>
  </metadata>
  <g
     id="layer1"
     inkscape:label="Layer 1"
     inkscape:groupmode="layer">
    <path
       sodipodi:type="arc"
       style="color:#000000;fill:url(#radialGradient4657);fill-opacity:1;fill-rule:nonzero;stroke:#1a1a1a;stroke-width:0.20000000000000001;stroke-linecap:butt;stroke-linejoin:round;stroke-miterlimit:4;stroke-opacity:1;stroke-dasharray:none;stroke-dashoffset:0;marker:none;visibility:visible;display:inline;overflow:visible;enable-background:accumulate"
       id="path4141"
       sodipodi:cx="17.269022"
       sodipodi:cy="15.841525"
       sodipodi:rx="11.716282"
       sodipodi:ry="11.716282"
       d="m 28.985304,15.841525 a 11.716282,11.716282 0 1 1 -23.4325639,0 11.716282,11.716282 0 1 1 23.4325639,0 z"
       transform="matrix(1.2349614,0,0,1.2349614,-5.3265756,-3.563672)" />
  </g>
</svg>
